<?xml version="1.0" encoding="UTF-8" standalone="no"?>
<!-- Created with Inkscape (http://www.inkscape.org/) -->

<svg
   xmlns:dc="http://purl.org/dc/elements/1.1/"
   xmlns:cc="http://creativecommons.org/ns#"
   xmlns:rdf="http://www.w3.org/1999/02/22-rdf-syntax-ns#"
   xmlns:svg="http://www.w3.org/2000/svg"
   xmlns="http://www.w3.org/2000/svg"
   xmlns:xlink="http://www.w3.org/1999/xlink"
   xmlns:sodipodi="http://sodipodi.sourceforge.net/DTD/sodipodi-0.dtd"
   xmlns:inkscape="http://www.inkscape.org/namespaces/inkscape"
   width="1265"
   height="1000"
   id="svg2"
   version="1.1"
   inkscape:version="0.48.5 r10040"
   sodipodi:docname="mockup-gnome-groupon.svg"
   inkscape:export-filename="/home/allan/SparkleShare/gnome-design/www/gnome.org/people/person-page.png"
   inkscape:export-xdpi="90"
   inkscape:export-ydpi="90">
  <defs
     id="defs4">
    <linearGradient
       id="linearGradient4454">
      <stop
         style="stop-color:#d3d7cf;stop-opacity:1;"
         offset="0"
         id="stop4456" />
      <stop
         id="stop4462"
         offset="0.66666663"
         style="stop-color:#eeeeec;stop-opacity:1;" />
      <stop
         style="stop-color:#eeeeec;stop-opacity:1;"
         offset="1"
         id="stop4458" />
    </linearGradient>
    <linearGradient
       id="linearGradient4478">
      <stop
         style="stop-color:#ffffff;stop-opacity:1;"
         offset="0"
         id="stop4480" />
      <stop
         style="stop-color:#ffffff;stop-opacity:0;"
         offset="1"
         id="stop4482" />
    </linearGradient>
    <linearGradient
       id="linearGradient4800">
      <stop
         style="stop-color:#d3d7cf;stop-opacity:1;"
         offset="0"
         id="stop4802" />
      <stop
         id="stop4804"
         offset="0.66666663"
         style="stop-color:#eeeeec;stop-opacity:1;" />
      <stop
         style="stop-color:#eeeeec;stop-opacity:1;"
         offset="1"
         id="stop4806" />
    </linearGradient>
    <linearGradient
       id="linearGradient4809">
      <stop
         style="stop-color:#ffffff;stop-opacity:1;"
         offset="0"
         id="stop4811" />
      <stop
         style="stop-color:#ffffff;stop-opacity:0;"
         offset="1"
         id="stop4813" />
    </linearGradient>
    <linearGradient
       inkscape:collect="always"
       xlink:href="#linearGradient3090-7"
       id="linearGradient3096-1"
       x1="862.67029"
       y1="31.521626"
       x2="862.67029"
       y2="215.37483"
       gradientUnits="userSpaceOnUse"
       gradientTransform="matrix(1.0275546,0,0,1.1088435,0.038968,273.23543)" />
    <linearGradient
       inkscape:collect="always"
       id="linearGradient3090-7">
      <stop
         style="stop-color:#bed2e8;stop-opacity:1;"
         offset="0"
         id="stop3092-8" />
      <stop
         style="stop-color:#fcfdfe;stop-opacity:1"
         offset="1"
         id="stop3094-6" />
    </linearGradient>
    <linearGradient
       inkscape:collect="always"
       xlink:href="#linearGradient3090-9"
       id="linearGradient3096-11"
       x1="862.67029"
       y1="31.521626"
       x2="862.67029"
       y2="215.37483"
       gradientUnits="userSpaceOnUse"
       gradientTransform="matrix(1.0275546,0,0,1.1088435,0.038968,273.23543)" />
    <linearGradient
       inkscape:collect="always"
       id="linearGradient3090-9">
      <stop
         style="stop-color:#bed2e8;stop-opacity:1;"
         offset="0"
         id="stop3092-5" />
      <stop
         style="stop-color:#fcfdfe;stop-opacity:1"
         offset="1"
         id="stop3094-5" />
    </linearGradient>
  </defs>
  <sodipodi:namedview
     id="base"
     pagecolor="#ffffff"
     bordercolor="#666666"
     borderopacity="1.0"
     inkscape:pageopacity="0"
     inkscape:pageshadow="2"
     inkscape:zoom="0.5"
     inkscape:cx="713.36668"
     inkscape:cy="343.25711"
     inkscape:document-units="px"
     inkscape:current-layer="layer2"
     showgrid="false"
     fit-margin-top="0"
     fit-margin-left="0"
     fit-margin-right="0"
     fit-margin-bottom="0"
     showguides="false"
     inkscape:window-width="1920"
     inkscape:window-height="1014"
     inkscape:window-x="0"
     inkscape:window-y="27"
     inkscape:window-maximized="1"
     inkscape:guide-bbox="true"
     inkscape:snap-nodes="false"
     inkscape:snap-bbox="false">
    <sodipodi:guide
       orientation="1,0"
       position="163,1243.0001"
       id="guide3073" />
    <inkscape:grid
       type="xygrid"
       id="grid3075"
       empspacing="5"
       visible="true"
       enabled="true"
       snapvisiblegridlinesonly="true" />
    <sodipodi:guide
       orientation="1,0"
       position="1103,1236.0001"
       id="guide3077" />
  </sodipodi:namedview>
  <metadata
     id="metadata7">
    <rdf:RDF>
      <cc:Work
         rdf:about="">
        <dc:format>image/svg+xml</dc:format>
        <dc:type
           rdf:resource="http://purl.org/dc/dcmitype/StillImage" />
        <dc:title></dc:title>
      </cc:Work>
    </rdf:RDF>
  </metadata>
  <g
     inkscape:groupmode="layer"
     id="layer2"
     inkscape:label="stuff"
     transform="translate(0,-293.0001)">
    <rect
       style="color:#000000;fill:#ffffff;fill-opacity:1;fill-rule:nonzero;stroke:none;stroke-width:1;marker:none;visibility:visible;display:inline;overflow:visible;enable-background:accumulate"
       id="rect11662-6"
       width="1265.7212"
       height="1119.6122"
       x="1.4142135"
       y="533.73688"
       inkscape:export-filename="/home/andreasn/Gnome/mockup-gnome-groupon.png"
       inkscape:export-xdpi="90"
       inkscape:export-ydpi="90" />
    <rect
       style="color:#000000;fill:#f57900;fill-opacity:1;fill-rule:nonzero;stroke:none;stroke-width:1;marker:none;visibility:visible;display:inline;overflow:visible;enable-background:accumulate"
       id="rect11662"
       width="1265.7212"
       height="270.61224"
       x="1.4142135"
       y="293.73688"
       inkscape:export-filename="/home/andreasn/Gnome/mockup-gnome-groupon.png"
       inkscape:export-xdpi="90"
       inkscape:export-ydpi="90" />
    <flowRoot
       xml:space="preserve"
       id="flowRoot5108"
       style="font-size:13px;font-style:normal;font-variant:normal;font-weight:normal;font-stretch:normal;line-height:125%;letter-spacing:0px;word-spacing:0px;fill:#000000;fill-opacity:1;stroke:none;font-family:Cantarell;-inkscape-font-specification:Cantarell"><flowRegion
         id="flowRegion5110"><rect
           id="rect5112"
           width="653.20917"
           height="249.95247"
           x="449.91446"
           y="553.22815" /></flowRegion><flowPara
         id="flowPara5114" /></flowRoot>    <flowRoot
       transform="translate(-257.90685,97.56949)"
       style="font-size:16px;font-style:normal;font-variant:normal;font-weight:normal;font-stretch:normal;line-height:125%;letter-spacing:0px;word-spacing:0px;fill:#555753;fill-opacity:1;stroke:none;font-family:Cantarell;-inkscape-font-specification:Cantarell"
       id="flowRoot5263"
       xml:space="preserve"
       inkscape:export-filename="/home/andreasn/Gnome/mockup-gnome-groupon.png"
       inkscape:export-xdpi="90"
       inkscape:export-ydpi="90"><flowRegion
         id="flowRegion5265"><rect
           style="font-size:16px;fill:#555753"
           y="603.21863"
           x="433.25095"
           height="487.33661"
           width="871.10516"
           id="rect5267" /></flowRegion><flowPara
         id="flowPara6833">&quot;GNOME&quot; the trademark has been a familiar name for the past 17 years in the Free and Open Source Community. </flowPara><flowPara
         id="flowPara6841">The GNOME project has been a stable desktop for GNU/Linux and BSD desktops.  It was the default desktop for Sun Microsystems workstation class machines and continues to be the  default desktop for all enterprise related distributions, RHEL and SLES and the default desktop of Fedora and Debian.  GNOME technology can be found in TVs, tablets, phones, consumer devices, and in common software everywhere.</flowPara><flowPara
         id="flowPara6843" /><flowPara
         id="flowPara6845">Recently Groupon announced a product with the same product name as GNOME. </flowPara><flowPara
         id="flowPara6909">Groupon’s product is a point of sale system (POS) running on iOS that directly competes with Square POS. The GNOME community was shocked that Groupon would use our mark for a product so closely related to GNOME.</flowPara><flowPara
         id="flowPara6911">While it was inconceivable that Groupon, with over $2.5billion in revenue, a full legal team and a huge engineering staff would not have heard of GNOME, found our trademark registrations, use a casual search, or even find our website, we politely got in touch with them and asked them to pick another name. Groupon has refused. To use the GNOME name for a proprietary software product that is antithetical to the fundamental ideas ofthe GNOME community, the free software community and the GNU project is outrageous.</flowPara><flowPara
         id="flowPara6913" /><flowPara
         id="flowPara6863">Please help us fight this huge company as they try to trade on our good will and hard earned reputation. We want to show that nonprofit free software can't be pushed around, that our brand matters and that you care. Help us raise the funds to fight back and most of all call public attention to this terrible behavior by Groupon. Help us make sure that when people hear about GNOME software they learn about freedom and not proprietary software that collects data and denies them the basic rights that we fight for.</flowPara><flowPara
         id="flowPara6865" /><flowPara
         id="flowPara6867" /><flowPara
         id="flowPara6869" /><flowPara
         id="flowPara6871" /><flowPara
         id="flowPara6873" /><flowPara
         id="flowPara6875" /><flowPara
         id="flowPara6877" /><flowPara
         id="flowPara6879" /><flowPara
         id="flowPara6881" /><flowPara
         id="flowPara6883" /><flowPara
         id="flowPara6885" /><flowPara
         id="flowPara6887" /><flowPara
         id="flowPara6889" /><flowPara
         id="flowPara6891" /><flowPara
         id="flowPara6893" /></flowRoot>    <flowRoot
       xml:space="preserve"
       id="flowRoot3737"
       style="fill:black;stroke:none;stroke-opacity:1;stroke-width:1px;stroke-linejoin:miter;stroke-linecap:butt;fill-opacity:1;font-family:Cantarell;font-style:normal;font-weight:500;font-size:10px;line-height:125%;letter-spacing:0px;word-spacing:0px;-inkscape-font-specification:Cantarell Medium;font-stretch:normal;font-variant:normal;text-anchor:start;text-align:start;writing-mode:lr"><flowRegion
         id="flowRegion3739"><rect
           id="rect3741"
           width="18"
           height="12"
           x="908"
           y="440" /></flowRegion><flowPara
         id="flowPara3743" /></flowRoot>    <rect
       style="fill:#d3d7cf;fill-opacity:1;stroke:none"
       id="rect7005"
       width="1265.4749"
       height="173.12132"
       x="-0.0052033318"
       y="1491.8885"
       ry="0"
       rx="0"
       inkscape:export-filename="/home/andreasn/Gnome/mockup-gnome-groupon.png"
       inkscape:export-xdpi="90"
       inkscape:export-ydpi="90" />
    <g
       id="g3637"
       transform="translate(3.05386,413.21173)"
       inkscape:export-filename="/home/andreasn/Gnome/mockup-gnome-groupon.png"
       inkscape:export-xdpi="90"
       inkscape:export-ydpi="90">
      <g
         transform="translate(-1008.3839,200.65746)"
         id="g4476">
        <path
           sodipodi:nodetypes="cccccccccccccccccccccccccccccccc"
           id="path4478"
           d="m 1008.1392,876.02112 c -0.6686,-1.82015 2.5381,6.41491 2.049,-12.76438 0.2148,12.00386 3.63,6.37738 1.9721,12.1766 l 5.8236,-11.57114 c -1.972,10.42851 -1.9571,12.34681 -0.5877,10.84168 1.9071,-6.11857 3.4333,-4.25859 3.2979,-10.72312 l 1.7975,10.20172 c 1.921,-3.00683 2.0513,4.65006 3.9723,-9.02169 l 2.1748,9.39902 3.0736,-9.82438 c 0.5762,6.1471 -1.991,3.15588 3.3411,9.30298 -0.1729,-5.38273 2.2537,-2.20065 2.0597,-9.65288 l 1.1595,9.64602 4.2192,-8.63064 1.6603,8.54145 c 3.2285,-5.07094 2.8482,-3.57175 3.3343,-9.55683 l 0.8919,9.52939 2.2091,-12.32851 c -1.1477,9.69349 0.7953,0.71698 2.5247,12.32851 3.7489,-4.47058 4.8402,-3.6502 5.5159,-9.14519 l 0.3773,9.13833 2.8609,-12.29421 c -1.1717,13.31873 1.1023,-1.03138 1.7495,12.28734 1.5367,-2.31622 2.312,-3.89214 3.8488,-9.13146 l 0.5008,8.23273 2.7099,-10.37324 c -0.5708,9.01698 0.8492,3.88276 2.806,10.51731 2.4652,-2.88182 4.4454,-1.31225 5.8933,-10.29777 -0.071,7.05798 -1.0475,8.0225 -0.1647,13.17236 l 0,4.06148 -71.0706,0 0,-4.06148 z"
           style="fill:#d3d7cf;fill-opacity:1;fill-rule:evenodd;stroke:none"
           inkscape:connector-curvature="0" />
        <path
           style="fill:#d3d7cf;fill-opacity:1;fill-rule:evenodd;stroke:none"
           d="m 1008.1392,876.02112 c -0.6686,-1.82015 2.5381,6.41491 2.049,-12.76438 0.2148,12.00386 3.63,6.37738 1.9721,12.1766 l 5.8236,-11.57114 c -1.972,10.42851 -1.9571,12.34681 -0.5877,10.84168 1.9071,-6.11857 3.4333,-4.25859 3.2979,-10.72312 l 1.7975,10.20172 c 1.921,-3.00683 2.0513,4.65006 3.9723,-9.02169 l 2.1748,9.39902 3.0736,-9.82438 c 0.5762,6.1471 -1.991,3.15588 3.3411,9.30298 -0.1729,-5.38273 2.2537,-2.20065 2.0597,-9.65288 l 1.1595,9.64602 4.2192,-8.63064 1.6603,8.54145 c 3.2285,-5.07094 2.8482,-3.57175 3.3343,-9.55683 l 0.8919,9.52939 2.2091,-12.32851 c -1.1477,9.69349 0.7953,0.71698 2.5247,12.32851 3.7489,-4.47058 4.8402,-3.6502 5.5159,-9.14519 l 0.3773,9.13833 2.8609,-12.29421 c -1.1717,13.31873 1.1023,-1.03138 1.7495,12.28734 1.5367,-2.31622 2.312,-3.89214 3.8488,-9.13146 l 0.5008,8.23273 2.7099,-10.37324 c -0.5708,9.01698 0.8492,3.88276 2.806,10.51731 2.4652,-2.88182 4.4454,-1.31225 5.8933,-10.29777 -0.071,7.05798 -1.0475,8.0225 -0.1647,13.17236 l 0,4.06148 -71.0706,0 0,-4.06148 z"
           id="path4480"
           sodipodi:nodetypes="cccccccccccccccccccccccccccccccc"
           inkscape:connector-curvature="0" />
        <path
           style="fill:#d3d7cf;fill-opacity:1;fill-rule:evenodd;stroke:none"
           d="m 1147.2449,876.02112 c -0.6686,-1.82015 2.538,6.41491 2.049,-12.76438 0.2148,12.00386 3.63,6.37738 1.9721,12.1766 l 5.8236,-11.57114 c -1.972,10.42851 -1.9571,12.34681 -0.5877,10.84168 1.9071,-6.11857 3.4333,-4.25859 3.2979,-10.72312 l 1.7975,10.20172 c 1.921,-3.00683 2.0513,4.65006 3.9723,-9.02169 l 2.1748,9.39902 3.0735,-9.82438 c 0.5762,6.1471 -1.9909,3.15588 3.3412,9.30298 -0.1729,-5.38273 2.2537,-2.20065 2.0597,-9.65288 l 1.1595,9.64602 4.2192,-8.63064 1.6603,8.54145 c 3.2285,-5.07094 2.8482,-3.57175 3.3343,-9.55683 l 0.8918,9.52939 2.2092,-12.32851 c -1.1477,9.69349 0.7953,0.71698 2.5247,12.32851 3.7489,-4.47058 4.8402,-3.6502 5.5159,-9.14519 l 0.3773,9.13833 2.8609,-12.29421 c -1.1717,13.31873 1.1023,-1.03138 1.7494,12.28734 1.5368,-2.31622 2.3121,-3.89214 3.8488,-9.13146 l 0.5009,8.23273 2.7099,-10.37324 c -0.5708,9.01698 0.8492,3.88276 2.806,10.51731 2.4652,-2.88182 4.4454,-1.31225 5.8933,-10.29777 -0.071,7.05798 -1.0475,8.0225 -0.1647,13.17236 l 0,4.06148 -71.0706,0 0,-4.06148 z"
           id="path4482"
           sodipodi:nodetypes="cccccccccccccccccccccccccccccccc"
           inkscape:connector-curvature="0" />
        <path
           sodipodi:nodetypes="cccccccccccccccccccccccccccccc"
           id="path4484"
           d="m 1140.0218,868.11558 c 1.972,7.4604 1.7032,9.19592 0.3338,8.11917 -3.9378,-4.01394 -3.941,-10.67352 -2.7902,-15.11655 l -2.3052,14.01716 c -1.9209,-2.15103 -2.3051,-11.38261 -4.2261,-21.16317 l -1.921,20.88832 -3.0735,-14.29201 c -0.5762,4.39755 0.7217,8.79509 -4.6103,13.19263 -2.8786,-1.6678 -4.036,-5.38781 -3.842,-10.71902 l -1.921,10.16933 -3.4577,-20.33863 c 0.067,9.2669 -0.5811,23.41382 0.3842,21.16317 l -1.5368,2.19877 c -3.2285,-3.62767 -3.3558,-8.911 -3.8419,-13.19264 l -0.3842,10.99387 -5.7629,-21.71287 c 1.1476,6.93458 3.2661,13.40616 1.5367,21.71287 -3.7489,-3.19818 -5.8556,-6.78798 -6.5313,-10.71901 l 0.3842,10.16932 -7.6838,-29.13373 c 1.1716,9.52802 3.7207,19.05602 3.0735,28.58403 -1.5368,-1.65699 -3.0735,-5.8715 -4.6103,-9.61962 l 0.7684,8.79509 -4.9945,-17.59018 c 0.5707,6.45061 3.5712,13.1909 -1.5368,18.96441 -2.4652,-2.06162 -4.6992,-5.11544 -6.1471,-11.54356 0.071,5.04917 1.0474,11.55022 0.1646,15.23435 l 0,2.90552 74.122,0 -9.5908,-11.96702 z"
           style="fill:#d3d7cf;fill-opacity:1;fill-rule:evenodd;stroke:none"
           inkscape:connector-curvature="0" />
        <path
           style="fill:#d3d7cf;fill-opacity:1;fill-rule:evenodd;stroke:none"
           d="m 1215.6574,877.09451 c 2.0801,-6.02677 5.6327,-16.72531 5.2081,-30.83578 1.1216,9.88786 1.0456,25.01624 -0.394,29.28281 l 3.5138,-7.76603 c -1.7123,7.67241 -1.4789,9.45723 -0.2898,8.34989 3.4193,-4.12801 3.4221,-10.97684 2.4228,-15.54613 l 2.0016,14.41551 c 1.6681,-2.21217 2.0017,-11.70608 3.6697,-21.76459 l 1.6681,21.48193 2.6688,-14.69816 c 0.5003,4.52251 -0.6267,9.04502 4.0033,13.56753 2.4995,-1.7152 3.5045,-5.54091 3.336,-11.02363 l 1.6681,10.45832 3.0024,-20.91662 c -0.058,9.53026 0.5046,24.0792 -0.3336,21.76459 l 1.3344,2.26125 -0.4687,4.34532 -33.011,-0.38812 0,-2.98809 z"
           id="path4486"
           sodipodi:nodetypes="ccccccccccccccccccc"
           inkscape:connector-curvature="0" />
      </g>
      <g
         transform="translate(-768.3839,200.65745)"
         id="g4476-2">
        <path
           sodipodi:nodetypes="cccccccccccccccccccccccccccccccc"
           id="path4478-5"
           d="m 1008.1392,876.02112 c -0.6686,-1.82015 2.5381,6.41491 2.049,-12.76438 0.2148,12.00386 3.63,6.37738 1.9721,12.1766 l 5.8236,-11.57114 c -1.972,10.42851 -1.9571,12.34681 -0.5877,10.84168 1.9071,-6.11857 3.4333,-4.25859 3.2979,-10.72312 l 1.7975,10.20172 c 1.921,-3.00683 2.0513,4.65006 3.9723,-9.02169 l 2.1748,9.39902 3.0736,-9.82438 c 0.5762,6.1471 -1.991,3.15588 3.3411,9.30298 -0.1729,-5.38273 2.2537,-2.20065 2.0597,-9.65288 l 1.1595,9.64602 4.2192,-8.63064 1.6603,8.54145 c 3.2285,-5.07094 2.8482,-3.57175 3.3343,-9.55683 l 0.8919,9.52939 2.2091,-12.32851 c -1.1477,9.69349 0.7953,0.71698 2.5247,12.32851 3.7489,-4.47058 4.8402,-3.6502 5.5159,-9.14519 l 0.3773,9.13833 2.8609,-12.29421 c -1.1717,13.31873 1.1023,-1.03138 1.7495,12.28734 1.5367,-2.31622 2.312,-3.89214 3.8488,-9.13146 l 0.5008,8.23273 2.7099,-10.37324 c -0.5708,9.01698 0.8492,3.88276 2.806,10.51731 2.4652,-2.88182 4.4454,-1.31225 5.8933,-10.29777 -0.071,7.05798 -1.0475,8.0225 -0.1647,13.17236 l 0,4.06148 -71.0706,0 0,-4.06148 z"
           style="fill:#d3d7cf;fill-opacity:1;fill-rule:evenodd;stroke:none"
           inkscape:connector-curvature="0" />
        <path
           style="fill:#d3d7cf;fill-opacity:1;fill-rule:evenodd;stroke:none"
           d="m 1008.1392,876.02112 c -0.6686,-1.82015 2.5381,6.41491 2.049,-12.76438 0.2148,12.00386 3.63,6.37738 1.9721,12.1766 l 5.8236,-11.57114 c -1.972,10.42851 -1.9571,12.34681 -0.5877,10.84168 1.9071,-6.11857 3.4333,-4.25859 3.2979,-10.72312 l 1.7975,10.20172 c 1.921,-3.00683 2.0513,4.65006 3.9723,-9.02169 l 2.1748,9.39902 3.0736,-9.82438 c 0.5762,6.1471 -1.991,3.15588 3.3411,9.30298 -0.1729,-5.38273 2.2537,-2.20065 2.0597,-9.65288 l 1.1595,9.64602 4.2192,-8.63064 1.6603,8.54145 c 3.2285,-5.07094 2.8482,-3.57175 3.3343,-9.55683 l 0.8919,9.52939 2.2091,-12.32851 c -1.1477,9.69349 0.7953,0.71698 2.5247,12.32851 3.7489,-4.47058 4.8402,-3.6502 5.5159,-9.14519 l 0.3773,9.13833 2.8609,-12.29421 c -1.1717,13.31873 1.1023,-1.03138 1.7495,12.28734 1.5367,-2.31622 2.312,-3.89214 3.8488,-9.13146 l 0.5008,8.23273 2.7099,-10.37324 c -0.5708,9.01698 0.8492,3.88276 2.806,10.51731 2.4652,-2.88182 4.4454,-1.31225 5.8933,-10.29777 -0.071,7.05798 -1.0475,8.0225 -0.1647,13.17236 l 0,4.06148 -71.0706,0 0,-4.06148 z"
           id="path4480-3"
           sodipodi:nodetypes="cccccccccccccccccccccccccccccccc"
           inkscape:connector-curvature="0" />
        <path
           style="fill:#d3d7cf;fill-opacity:1;fill-rule:evenodd;stroke:none"
           d="m 1147.2449,876.02112 c -0.6686,-1.82015 2.538,6.41491 2.049,-12.76438 0.2148,12.00386 3.63,6.37738 1.9721,12.1766 l 5.8236,-11.57114 c -1.972,10.42851 -1.9571,12.34681 -0.5877,10.84168 1.9071,-6.11857 3.4333,-4.25859 3.2979,-10.72312 l 1.7975,10.20172 c 1.921,-3.00683 2.0513,4.65006 3.9723,-9.02169 l 2.1748,9.39902 3.0735,-9.82438 c 0.5762,6.1471 -1.9909,3.15588 3.3412,9.30298 -0.1729,-5.38273 2.2537,-2.20065 2.0597,-9.65288 l 1.1595,9.64602 4.2192,-8.63064 1.6603,8.54145 c 3.2285,-5.07094 2.8482,-3.57175 3.3343,-9.55683 l 0.8918,9.52939 2.2092,-12.32851 c -1.1477,9.69349 0.7953,0.71698 2.5247,12.32851 3.7489,-4.47058 4.8402,-3.6502 5.5159,-9.14519 l 0.3773,9.13833 2.8609,-12.29421 c -1.1717,13.31873 1.1023,-1.03138 1.7494,12.28734 1.5368,-2.31622 2.3121,-3.89214 3.8488,-9.13146 l 0.5009,8.23273 2.7099,-10.37324 c -0.5708,9.01698 0.8492,3.88276 2.806,10.51731 2.4652,-2.88182 4.4454,-1.31225 5.8933,-10.29777 -0.071,7.05798 -1.0475,8.0225 -0.1647,13.17236 l 0,4.06148 -71.0706,0 0,-4.06148 z"
           id="path4482-7"
           sodipodi:nodetypes="cccccccccccccccccccccccccccccccc"
           inkscape:connector-curvature="0" />
        <path
           sodipodi:nodetypes="cccccccccccccccccccccccccccccc"
           id="path4484-3"
           d="m 1140.0218,868.11558 c 1.972,7.4604 1.7032,9.19592 0.3338,8.11917 -3.9378,-4.01394 -3.941,-10.67352 -2.7902,-15.11655 l -2.3052,14.01716 c -1.9209,-2.15103 -2.3051,-11.38261 -4.2261,-21.16317 l -1.921,20.88832 -3.0735,-14.29201 c -0.5762,4.39755 0.7217,8.79509 -4.6103,13.19263 -2.8786,-1.6678 -4.036,-5.38781 -3.842,-10.71902 l -1.921,10.16933 -3.4577,-20.33863 c 0.067,9.2669 -0.5811,23.41382 0.3842,21.16317 l -1.5368,2.19877 c -3.2285,-3.62767 -3.3558,-8.911 -3.8419,-13.19264 l -0.3842,10.99387 -5.7629,-21.71287 c 1.1476,6.93458 3.2661,13.40616 1.5367,21.71287 -3.7489,-3.19818 -5.8556,-6.78798 -6.5313,-10.71901 l 0.3842,10.16932 -7.6838,-29.13373 c 1.1716,9.52802 3.7207,19.05602 3.0735,28.58403 -1.5368,-1.65699 -3.0735,-5.8715 -4.6103,-9.61962 l 0.7684,8.79509 -4.9945,-17.59018 c 0.5707,6.45061 3.5712,13.1909 -1.5368,18.96441 -2.4652,-2.06162 -4.6992,-5.11544 -6.1471,-11.54356 0.071,5.04917 1.0474,11.55022 0.1646,15.23435 l 0,2.90552 74.122,0 -9.5908,-11.96702 z"
           style="fill:#d3d7cf;fill-opacity:1;fill-rule:evenodd;stroke:none"
           inkscape:connector-curvature="0" />
        <path
           style="fill:#d3d7cf;fill-opacity:1;fill-rule:evenodd;stroke:none"
           d="m 1215.6574,877.09451 c 2.0801,-6.02677 5.6327,-16.72531 5.2081,-30.83578 1.1216,9.88786 1.0456,25.01624 -0.394,29.28281 l 3.5138,-7.76603 c -1.7123,7.67241 -1.4789,9.45723 -0.2898,8.34989 3.4193,-4.12801 3.4221,-10.97684 2.4228,-15.54613 l 2.0016,14.41551 c 1.6681,-2.21217 2.0017,-11.70608 3.6697,-21.76459 l 1.6681,21.48193 2.6688,-14.69816 c 0.5003,4.52251 -0.6267,9.04502 4.0033,13.56753 2.4995,-1.7152 3.5045,-5.54091 3.336,-11.02363 l 1.6681,10.45832 3.0024,-20.91662 c -0.058,9.53026 0.5046,24.0792 -0.3336,21.76459 l 1.3344,2.26125 -0.4687,4.34532 -33.011,-0.38812 0,-2.98809 z"
           id="path4486-5"
           sodipodi:nodetypes="ccccccccccccccccccc"
           inkscape:connector-curvature="0" />
      </g>
      <g
         transform="translate(-528.3839,200.65745)"
         id="g4476-2-5">
        <path
           sodipodi:nodetypes="cccccccccccccccccccccccccccccccc"
           id="path4478-5-1"
           d="m 1008.1392,876.02112 c -0.6686,-1.82015 2.5381,6.41491 2.049,-12.76438 0.2148,12.00386 3.63,6.37738 1.9721,12.1766 l 5.8236,-11.57114 c -1.972,10.42851 -1.9571,12.34681 -0.5877,10.84168 1.9071,-6.11857 3.4333,-4.25859 3.2979,-10.72312 l 1.7975,10.20172 c 1.921,-3.00683 2.0513,4.65006 3.9723,-9.02169 l 2.1748,9.39902 3.0736,-9.82438 c 0.5762,6.1471 -1.991,3.15588 3.3411,9.30298 -0.1729,-5.38273 2.2537,-2.20065 2.0597,-9.65288 l 1.1595,9.64602 4.2192,-8.63064 1.6603,8.54145 c 3.2285,-5.07094 2.8482,-3.57175 3.3343,-9.55683 l 0.8919,9.52939 2.2091,-12.32851 c -1.1477,9.69349 0.7953,0.71698 2.5247,12.32851 3.7489,-4.47058 4.8402,-3.6502 5.5159,-9.14519 l 0.3773,9.13833 2.8609,-12.29421 c -1.1717,13.31873 1.1023,-1.03138 1.7495,12.28734 1.5367,-2.31622 2.312,-3.89214 3.8488,-9.13146 l 0.5008,8.23273 2.7099,-10.37324 c -0.5708,9.01698 0.8492,3.88276 2.806,10.51731 2.4652,-2.88182 4.4454,-1.31225 5.8933,-10.29777 -0.071,7.05798 -1.0475,8.0225 -0.1647,13.17236 l 0,4.06148 -71.0706,0 0,-4.06148 z"
           style="fill:#d3d7cf;fill-opacity:1;fill-rule:evenodd;stroke:none"
           inkscape:connector-curvature="0" />
        <path
           style="fill:#d3d7cf;fill-opacity:1;fill-rule:evenodd;stroke:none"
           d="m 1008.1392,876.02112 c -0.6686,-1.82015 2.5381,6.41491 2.049,-12.76438 0.2148,12.00386 3.63,6.37738 1.9721,12.1766 l 5.8236,-11.57114 c -1.972,10.42851 -1.9571,12.34681 -0.5877,10.84168 1.9071,-6.11857 3.4333,-4.25859 3.2979,-10.72312 l 1.7975,10.20172 c 1.921,-3.00683 2.0513,4.65006 3.9723,-9.02169 l 2.1748,9.39902 3.0736,-9.82438 c 0.5762,6.1471 -1.991,3.15588 3.3411,9.30298 -0.1729,-5.38273 2.2537,-2.20065 2.0597,-9.65288 l 1.1595,9.64602 4.2192,-8.63064 1.6603,8.54145 c 3.2285,-5.07094 2.8482,-3.57175 3.3343,-9.55683 l 0.8919,9.52939 2.2091,-12.32851 c -1.1477,9.69349 0.7953,0.71698 2.5247,12.32851 3.7489,-4.47058 4.8402,-3.6502 5.5159,-9.14519 l 0.3773,9.13833 2.8609,-12.29421 c -1.1717,13.31873 1.1023,-1.03138 1.7495,12.28734 1.5367,-2.31622 2.312,-3.89214 3.8488,-9.13146 l 0.5008,8.23273 2.7099,-10.37324 c -0.5708,9.01698 0.8492,3.88276 2.806,10.51731 2.4652,-2.88182 4.4454,-1.31225 5.8933,-10.29777 -0.071,7.05798 -1.0475,8.0225 -0.1647,13.17236 l 0,4.06148 -71.0706,0 0,-4.06148 z"
           id="path4480-3-8"
           sodipodi:nodetypes="cccccccccccccccccccccccccccccccc"
           inkscape:connector-curvature="0" />
        <path
           style="fill:#d3d7cf;fill-opacity:1;fill-rule:evenodd;stroke:none"
           d="m 1147.2449,876.02112 c -0.6686,-1.82015 2.538,6.41491 2.049,-12.76438 0.2148,12.00386 3.63,6.37738 1.9721,12.1766 l 5.8236,-11.57114 c -1.972,10.42851 -1.9571,12.34681 -0.5877,10.84168 1.9071,-6.11857 3.4333,-4.25859 3.2979,-10.72312 l 1.7975,10.20172 c 1.921,-3.00683 2.0513,4.65006 3.9723,-9.02169 l 2.1748,9.39902 3.0735,-9.82438 c 0.5762,6.1471 -1.9909,3.15588 3.3412,9.30298 -0.1729,-5.38273 2.2537,-2.20065 2.0597,-9.65288 l 1.1595,9.64602 4.2192,-8.63064 1.6603,8.54145 c 3.2285,-5.07094 2.8482,-3.57175 3.3343,-9.55683 l 0.8918,9.52939 2.2092,-12.32851 c -1.1477,9.69349 0.7953,0.71698 2.5247,12.32851 3.7489,-4.47058 4.8402,-3.6502 5.5159,-9.14519 l 0.3773,9.13833 2.8609,-12.29421 c -1.1717,13.31873 1.1023,-1.03138 1.7494,12.28734 1.5368,-2.31622 2.3121,-3.89214 3.8488,-9.13146 l 0.5009,8.23273 2.7099,-10.37324 c -0.5708,9.01698 0.8492,3.88276 2.806,10.51731 2.4652,-2.88182 4.4454,-1.31225 5.8933,-10.29777 -0.071,7.05798 -1.0475,8.0225 -0.1647,13.17236 l 0,4.06148 -71.0706,0 0,-4.06148 z"
           id="path4482-7-1"
           sodipodi:nodetypes="cccccccccccccccccccccccccccccccc"
           inkscape:connector-curvature="0" />
        <path
           sodipodi:nodetypes="cccccccccccccccccccccccccccccc"
           id="path4484-3-7"
           d="m 1140.0218,868.11558 c 1.972,7.4604 1.7032,9.19592 0.3338,8.11917 -3.9378,-4.01394 -3.941,-10.67352 -2.7902,-15.11655 l -2.3052,14.01716 c -1.9209,-2.15103 -2.3051,-11.38261 -4.2261,-21.16317 l -1.921,20.88832 -3.0735,-14.29201 c -0.5762,4.39755 0.7217,8.79509 -4.6103,13.19263 -2.8786,-1.6678 -4.036,-5.38781 -3.842,-10.71902 l -1.921,10.16933 -3.4577,-20.33863 c 0.067,9.2669 -0.5811,23.41382 0.3842,21.16317 l -1.5368,2.19877 c -3.2285,-3.62767 -3.3558,-8.911 -3.8419,-13.19264 l -0.3842,10.99387 -5.7629,-21.71287 c 1.1476,6.93458 3.2661,13.40616 1.5367,21.71287 -3.7489,-3.19818 -5.8556,-6.78798 -6.5313,-10.71901 l 0.3842,10.16932 -7.6838,-29.13373 c 1.1716,9.52802 3.7207,19.05602 3.0735,28.58403 -1.5368,-1.65699 -3.0735,-5.8715 -4.6103,-9.61962 l 0.7684,8.79509 -4.9945,-17.59018 c 0.5707,6.45061 3.5712,13.1909 -1.5368,18.96441 -2.4652,-2.06162 -4.6992,-5.11544 -6.1471,-11.54356 0.071,5.04917 1.0474,11.55022 0.1646,15.23435 l 0,2.90552 74.122,0 -9.5908,-11.96702 z"
           style="fill:#d3d7cf;fill-opacity:1;fill-rule:evenodd;stroke:none"
           inkscape:connector-curvature="0" />
        <path
           style="fill:#d3d7cf;fill-opacity:1;fill-rule:evenodd;stroke:none"
           d="m 1215.6574,877.09451 c 2.0801,-6.02677 5.6327,-16.72531 5.2081,-30.83578 1.1216,9.88786 1.0456,25.01624 -0.394,29.28281 l 3.5138,-7.76603 c -1.7123,7.67241 -1.4789,9.45723 -0.2898,8.34989 3.4193,-4.12801 3.4221,-10.97684 2.4228,-15.54613 l 2.0016,14.41551 c 1.6681,-2.21217 2.0017,-11.70608 3.6697,-21.76459 l 1.6681,21.48193 2.6688,-14.69816 c 0.5003,4.52251 -0.6267,9.04502 4.0033,13.56753 2.4995,-1.7152 3.5045,-5.54091 3.336,-11.02363 l 1.6681,10.45832 3.0024,-20.91662 c -0.058,9.53026 0.5046,24.0792 -0.3336,21.76459 l 1.3344,2.26125 -0.4687,4.34532 -33.011,-0.38812 0,-2.98809 z"
           id="path4486-5-6"
           sodipodi:nodetypes="ccccccccccccccccccc"
           inkscape:connector-curvature="0" />
      </g>
      <g
         transform="translate(-288.3839,200.65745)"
         id="g4476-2-5-8">
        <path
           sodipodi:nodetypes="cccccccccccccccccccccccccccccccc"
           id="path4478-5-1-2"
           d="m 1008.1392,876.02112 c -0.6686,-1.82015 2.5381,6.41491 2.049,-12.76438 0.2148,12.00386 3.63,6.37738 1.9721,12.1766 l 5.8236,-11.57114 c -1.972,10.42851 -1.9571,12.34681 -0.5877,10.84168 1.9071,-6.11857 3.4333,-4.25859 3.2979,-10.72312 l 1.7975,10.20172 c 1.921,-3.00683 2.0513,4.65006 3.9723,-9.02169 l 2.1748,9.39902 3.0736,-9.82438 c 0.5762,6.1471 -1.991,3.15588 3.3411,9.30298 -0.1729,-5.38273 2.2537,-2.20065 2.0597,-9.65288 l 1.1595,9.64602 4.2192,-8.63064 1.6603,8.54145 c 3.2285,-5.07094 2.8482,-3.57175 3.3343,-9.55683 l 0.8919,9.52939 2.2091,-12.32851 c -1.1477,9.69349 0.7953,0.71698 2.5247,12.32851 3.7489,-4.47058 4.8402,-3.6502 5.5159,-9.14519 l 0.3773,9.13833 2.8609,-12.29421 c -1.1717,13.31873 1.1023,-1.03138 1.7495,12.28734 1.5367,-2.31622 2.312,-3.89214 3.8488,-9.13146 l 0.5008,8.23273 2.7099,-10.37324 c -0.5708,9.01698 0.8492,3.88276 2.806,10.51731 2.4652,-2.88182 4.4454,-1.31225 5.8933,-10.29777 -0.071,7.05798 -1.0475,8.0225 -0.1647,13.17236 l 0,4.06148 -71.0706,0 0,-4.06148 z"
           style="fill:#d3d7cf;fill-opacity:1;fill-rule:evenodd;stroke:none"
           inkscape:connector-curvature="0" />
        <path
           style="fill:#d3d7cf;fill-opacity:1;fill-rule:evenodd;stroke:none"
           d="m 1008.1392,876.02112 c -0.6686,-1.82015 2.5381,6.41491 2.049,-12.76438 0.2148,12.00386 3.63,6.37738 1.9721,12.1766 l 5.8236,-11.57114 c -1.972,10.42851 -1.9571,12.34681 -0.5877,10.84168 1.9071,-6.11857 3.4333,-4.25859 3.2979,-10.72312 l 1.7975,10.20172 c 1.921,-3.00683 2.0513,4.65006 3.9723,-9.02169 l 2.1748,9.39902 3.0736,-9.82438 c 0.5762,6.1471 -1.991,3.15588 3.3411,9.30298 -0.1729,-5.38273 2.2537,-2.20065 2.0597,-9.65288 l 1.1595,9.64602 4.2192,-8.63064 1.6603,8.54145 c 3.2285,-5.07094 2.8482,-3.57175 3.3343,-9.55683 l 0.8919,9.52939 2.2091,-12.32851 c -1.1477,9.69349 0.7953,0.71698 2.5247,12.32851 3.7489,-4.47058 4.8402,-3.6502 5.5159,-9.14519 l 0.3773,9.13833 2.8609,-12.29421 c -1.1717,13.31873 1.1023,-1.03138 1.7495,12.28734 1.5367,-2.31622 2.312,-3.89214 3.8488,-9.13146 l 0.5008,8.23273 2.7099,-10.37324 c -0.5708,9.01698 0.8492,3.88276 2.806,10.51731 2.4652,-2.88182 4.4454,-1.31225 5.8933,-10.29777 -0.071,7.05798 -1.0475,8.0225 -0.1647,13.17236 l 0,4.06148 -71.0706,0 0,-4.06148 z"
           id="path4480-3-8-4"
           sodipodi:nodetypes="cccccccccccccccccccccccccccccccc"
           inkscape:connector-curvature="0" />
        <path
           style="fill:#d3d7cf;fill-opacity:1;fill-rule:evenodd;stroke:none"
           d="m 1147.2449,876.02112 c -0.6686,-1.82015 2.538,6.41491 2.049,-12.76438 0.2148,12.00386 3.63,6.37738 1.9721,12.1766 l 5.8236,-11.57114 c -1.972,10.42851 -1.9571,12.34681 -0.5877,10.84168 1.9071,-6.11857 3.4333,-4.25859 3.2979,-10.72312 l 1.7975,10.20172 c 1.921,-3.00683 2.0513,4.65006 3.9723,-9.02169 l 2.1748,9.39902 3.0735,-9.82438 c 0.5762,6.1471 -1.9909,3.15588 3.3412,9.30298 -0.1729,-5.38273 2.2537,-2.20065 2.0597,-9.65288 l 1.1595,9.64602 4.2192,-8.63064 1.6603,8.54145 c 3.2285,-5.07094 2.8482,-3.57175 3.3343,-9.55683 l 0.8918,9.52939 2.2092,-12.32851 c -1.1477,9.69349 0.7953,0.71698 2.5247,12.32851 3.7489,-4.47058 4.8402,-3.6502 5.5159,-9.14519 l 0.3773,9.13833 2.8609,-12.29421 c -1.1717,13.31873 1.1023,-1.03138 1.7494,12.28734 1.5368,-2.31622 2.3121,-3.89214 3.8488,-9.13146 l 0.5009,8.23273 2.7099,-10.37324 c -0.5708,9.01698 0.8492,3.88276 2.806,10.51731 2.4652,-2.88182 4.4454,-1.31225 5.8933,-10.29777 -0.071,7.05798 -1.0475,8.0225 -0.1647,13.17236 l 0,4.06148 -71.0706,0 0,-4.06148 z"
           id="path4482-7-1-7"
           sodipodi:nodetypes="cccccccccccccccccccccccccccccccc"
           inkscape:connector-curvature="0" />
        <path
           sodipodi:nodetypes="cccccccccccccccccccccccccccccc"
           id="path4484-3-7-7"
           d="m 1140.0218,868.11558 c 1.972,7.4604 1.7032,9.19592 0.3338,8.11917 -3.9378,-4.01394 -3.941,-10.67352 -2.7902,-15.11655 l -2.3052,14.01716 c -1.9209,-2.15103 -2.3051,-11.38261 -4.2261,-21.16317 l -1.921,20.88832 -3.0735,-14.29201 c -0.5762,4.39755 0.7217,8.79509 -4.6103,13.19263 -2.8786,-1.6678 -4.036,-5.38781 -3.842,-10.71902 l -1.921,10.16933 -3.4577,-20.33863 c 0.067,9.2669 -0.5811,23.41382 0.3842,21.16317 l -1.5368,2.19877 c -3.2285,-3.62767 -3.3558,-8.911 -3.8419,-13.19264 l -0.3842,10.99387 -5.7629,-21.71287 c 1.1476,6.93458 3.2661,13.40616 1.5367,21.71287 -3.7489,-3.19818 -5.8556,-6.78798 -6.5313,-10.71901 l 0.3842,10.16932 -7.6838,-29.13373 c 1.1716,9.52802 3.7207,19.05602 3.0735,28.58403 -1.5368,-1.65699 -3.0735,-5.8715 -4.6103,-9.61962 l 0.7684,8.79509 -4.9945,-17.59018 c 0.5707,6.45061 3.5712,13.1909 -1.5368,18.96441 -2.4652,-2.06162 -4.6992,-5.11544 -6.1471,-11.54356 0.071,5.04917 1.0474,11.55022 0.1646,15.23435 l 0,2.90552 74.122,0 -9.5908,-11.96702 z"
           style="fill:#d3d7cf;fill-opacity:1;fill-rule:evenodd;stroke:none"
           inkscape:connector-curvature="0" />
        <path
           style="fill:#d3d7cf;fill-opacity:1;fill-rule:evenodd;stroke:none"
           d="m 1215.6574,877.09451 c 2.0801,-6.02677 5.6327,-16.72531 5.2081,-30.83578 1.1216,9.88786 1.0456,25.01624 -0.394,29.28281 l 3.5138,-7.76603 c -1.7123,7.67241 -1.4789,9.45723 -0.2898,8.34989 3.4193,-4.12801 3.4221,-10.97684 2.4228,-15.54613 l 2.0016,14.41551 c 1.6681,-2.21217 2.0017,-11.70608 3.6697,-21.76459 l 1.6681,21.48193 2.6688,-14.69816 c 0.5003,4.52251 -0.6267,9.04502 4.0033,13.56753 2.4995,-1.7152 3.5045,-5.54091 3.336,-11.02363 l 1.6681,10.45832 3.0024,-20.91662 c -0.058,9.53026 0.5046,24.0792 -0.3336,21.76459 l 1.3344,2.26125 -0.4687,4.34532 -33.011,-0.38812 0,-2.98809 z"
           id="path4486-5-6-3"
           sodipodi:nodetypes="ccccccccccccccccccc"
           inkscape:connector-curvature="0" />
      </g>
      <g
         transform="translate(-48.3839,200.65745)"
         id="g4476-2-5-8-3">
        <path
           sodipodi:nodetypes="cccccccccccccccccccccccccccccccc"
           id="path4478-5-1-2-3"
           d="m 1008.1392,876.02112 c -0.6686,-1.82015 2.5381,6.41491 2.049,-12.76438 0.2148,12.00386 3.63,6.37738 1.9721,12.1766 l 5.8236,-11.57114 c -1.972,10.42851 -1.9571,12.34681 -0.5877,10.84168 1.9071,-6.11857 3.4333,-4.25859 3.2979,-10.72312 l 1.7975,10.20172 c 1.921,-3.00683 2.0513,4.65006 3.9723,-9.02169 l 2.1748,9.39902 3.0736,-9.82438 c 0.5762,6.1471 -1.991,3.15588 3.3411,9.30298 -0.1729,-5.38273 2.2537,-2.20065 2.0597,-9.65288 l 1.1595,9.64602 4.2192,-8.63064 1.6603,8.54145 c 3.2285,-5.07094 2.8482,-3.57175 3.3343,-9.55683 l 0.8919,9.52939 2.2091,-12.32851 c -1.1477,9.69349 0.7953,0.71698 2.5247,12.32851 3.7489,-4.47058 4.8402,-3.6502 5.5159,-9.14519 l 0.3773,9.13833 2.8609,-12.29421 c -1.1717,13.31873 1.1023,-1.03138 1.7495,12.28734 1.5367,-2.31622 2.312,-3.89214 3.8488,-9.13146 l 0.5008,8.23273 2.7099,-10.37324 c -0.5708,9.01698 0.8492,3.88276 2.806,10.51731 2.4652,-2.88182 4.4454,-1.31225 5.8933,-10.29777 -0.071,7.05798 -1.0475,8.0225 -0.1647,13.17236 l 0,4.06148 -71.0706,0 0,-4.06148 z"
           style="fill:#d3d7cf;fill-opacity:1;fill-rule:evenodd;stroke:none"
           inkscape:connector-curvature="0" />
        <path
           style="fill:#d3d7cf;fill-opacity:1;fill-rule:evenodd;stroke:none"
           d="m 1008.1392,876.02112 c -0.6686,-1.82015 2.5381,6.41491 2.049,-12.76438 0.2148,12.00386 3.63,6.37738 1.9721,12.1766 l 5.8236,-11.57114 c -1.972,10.42851 -1.9571,12.34681 -0.5877,10.84168 1.9071,-6.11857 3.4333,-4.25859 3.2979,-10.72312 l 1.7975,10.20172 c 1.921,-3.00683 2.0513,4.65006 3.9723,-9.02169 l 2.1748,9.39902 3.0736,-9.82438 c 0.5762,6.1471 -1.991,3.15588 3.3411,9.30298 -0.1729,-5.38273 2.2537,-2.20065 2.0597,-9.65288 l 1.1595,9.64602 4.2192,-8.63064 1.6603,8.54145 c 3.2285,-5.07094 2.8482,-3.57175 3.3343,-9.55683 l 0.8919,9.52939 2.2091,-12.32851 c -1.1477,9.69349 0.7953,0.71698 2.5247,12.32851 3.7489,-4.47058 4.8402,-3.6502 5.5159,-9.14519 l 0.3773,9.13833 2.8609,-12.29421 c -1.1717,13.31873 1.1023,-1.03138 1.7495,12.28734 1.5367,-2.31622 2.312,-3.89214 3.8488,-9.13146 l 0.5008,8.23273 2.7099,-10.37324 c -0.5708,9.01698 0.8492,3.88276 2.806,10.51731 2.4652,-2.88182 4.4454,-1.31225 5.8933,-10.29777 -0.071,7.05798 -1.0475,8.0225 -0.1647,13.17236 l 0,4.06148 -71.0706,0 0,-4.06148 z"
           id="path4480-3-8-4-7"
           sodipodi:nodetypes="cccccccccccccccccccccccccccccccc"
           inkscape:connector-curvature="0" />
        <path
           style="fill:#d3d7cf;fill-opacity:1;fill-rule:evenodd;stroke:none"
           d="m 1147.2449,876.02112 c -0.6686,-1.82015 2.538,6.41491 2.049,-12.76438 0.2148,12.00386 3.63,6.37738 1.9721,12.1766 l 5.8236,-11.57114 c -1.972,10.42851 -1.9571,12.34681 -0.5877,10.84168 1.9071,-6.11857 3.4333,-4.25859 3.2979,-10.72312 l 1.7975,10.20172 c 1.921,-3.00683 2.0513,4.65006 3.9723,-9.02169 l 2.1748,9.39902 3.0735,-9.82438 c 0.5762,6.1471 -1.9909,3.15588 3.3412,9.30298 -0.1729,-5.38273 2.2537,-2.20065 2.0597,-9.65288 l 1.1595,9.64602 4.2192,-8.63064 1.6603,8.54145 c 3.2285,-5.07094 2.8482,-3.57175 3.3343,-9.55683 l 0.8918,9.52939 2.2092,-12.32851 c -1.1477,9.69349 0.7953,0.71698 2.5247,12.32851 3.7489,-4.47058 4.8402,-3.6502 5.5159,-9.14519 l 0.3773,9.13833 2.8609,-12.29421 c -1.1717,13.31873 1.1023,-1.03138 1.7494,12.28734 1.5368,-2.31622 2.3121,-3.89214 3.8488,-9.13146 l 0.5009,8.23273 2.7099,-10.37324 c -0.5708,9.01698 0.8492,3.88276 2.806,10.51731 2.4652,-2.88182 4.4454,-1.31225 5.8933,-10.29777 -0.071,7.05798 -1.0475,8.0225 -0.1647,13.17236 l 0,4.06148 -71.0706,0 0,-4.06148 z"
           id="path4482-7-1-7-7"
           sodipodi:nodetypes="cccccccccccccccccccccccccccccccc"
           inkscape:connector-curvature="0" />
        <path
           sodipodi:nodetypes="cccccccccccccccccccccccccccccc"
           id="path4484-3-7-7-8"
           d="m 1140.0218,868.11558 c 1.972,7.4604 1.7032,9.19592 0.3338,8.11917 -3.9378,-4.01394 -3.941,-10.67352 -2.7902,-15.11655 l -2.3052,14.01716 c -1.9209,-2.15103 -2.3051,-11.38261 -4.2261,-21.16317 l -1.921,20.88832 -3.0735,-14.29201 c -0.5762,4.39755 0.7217,8.79509 -4.6103,13.19263 -2.8786,-1.6678 -4.036,-5.38781 -3.842,-10.71902 l -1.921,10.16933 -3.4577,-20.33863 c 0.067,9.2669 -0.5811,23.41382 0.3842,21.16317 l -1.5368,2.19877 c -3.2285,-3.62767 -3.3558,-8.911 -3.8419,-13.19264 l -0.3842,10.99387 -5.7629,-21.71287 c 1.1476,6.93458 3.2661,13.40616 1.5367,21.71287 -3.7489,-3.19818 -5.8556,-6.78798 -6.5313,-10.71901 l 0.3842,10.16932 -7.6838,-29.13373 c 1.1716,9.52802 3.7207,19.05602 3.0735,28.58403 -1.5368,-1.65699 -3.0735,-5.8715 -4.6103,-9.61962 l 0.7684,8.79509 -4.9945,-17.59018 c 0.5707,6.45061 3.5712,13.1909 -1.5368,18.96441 -2.4652,-2.06162 -4.6992,-5.11544 -6.1471,-11.54356 0.071,5.04917 1.0474,11.55022 0.1646,15.23435 l 0,2.90552 74.122,0 -9.5908,-11.96702 z"
           style="fill:#d3d7cf;fill-opacity:1;fill-rule:evenodd;stroke:none"
           inkscape:connector-curvature="0" />
        <path
           style="fill:#d3d7cf;fill-opacity:1;fill-rule:evenodd;stroke:none"
           d="m 1215.6574,877.09451 c 2.0801,-6.02677 5.6327,-16.72531 5.2081,-30.83578 1.1216,9.88786 1.0456,25.01624 -0.394,29.28281 l 3.5138,-7.76603 c -1.7123,7.67241 -1.4789,9.45723 -0.2898,8.34989 3.4193,-4.12801 3.4221,-10.97684 2.4228,-15.54613 l 2.0016,14.41551 c 1.6681,-2.21217 2.0017,-11.70608 3.6697,-21.76459 l 1.6681,21.48193 2.6688,-14.69816 c 0.5003,4.52251 -0.6267,9.04502 4.0033,13.56753 2.4995,-1.7152 3.5045,-5.54091 3.336,-11.02363 l 1.6681,10.45832 3.0024,-20.91662 c -0.058,9.53026 0.5046,24.0792 -0.3336,21.76459 l 1.3344,2.26125 -0.4687,4.34532 -33.011,-0.38812 0,-2.98809 z"
           id="path4486-5-6-3-9"
           sodipodi:nodetypes="ccccccccccccccccccc"
           inkscape:connector-curvature="0" />
      </g>
      <g
         transform="translate(11.616099,200.65745)"
         id="g4476-2-5-8-3-6">
        <path
           sodipodi:nodetypes="cccccccccccccccccccccccccccccccc"
           id="path4478-5-1-2-3-4"
           d="m 1008.1392,876.02112 c -0.6686,-1.82015 2.5381,6.41491 2.049,-12.76438 0.2148,12.00386 3.63,6.37738 1.9721,12.1766 l 5.8236,-11.57114 c -1.972,10.42851 -1.9571,12.34681 -0.5877,10.84168 1.9071,-6.11857 3.4333,-4.25859 3.2979,-10.72312 l 1.7975,10.20172 c 1.921,-3.00683 2.0513,4.65006 3.9723,-9.02169 l 2.1748,9.39902 3.0736,-9.82438 c 0.5762,6.1471 -1.991,3.15588 3.3411,9.30298 -0.1729,-5.38273 2.2537,-2.20065 2.0597,-9.65288 l 1.1595,9.64602 4.2192,-8.63064 1.6603,8.54145 c 3.2285,-5.07094 2.8482,-3.57175 3.3343,-9.55683 l 0.8919,9.52939 2.2091,-12.32851 c -1.1477,9.69349 0.7953,0.71698 2.5247,12.32851 3.7489,-4.47058 4.8402,-3.6502 5.5159,-9.14519 l 0.3773,9.13833 2.8609,-12.29421 c -1.1717,13.31873 1.1023,-1.03138 1.7495,12.28734 1.5367,-2.31622 2.312,-3.89214 3.8488,-9.13146 l 0.5008,8.23273 2.7099,-10.37324 c -0.5708,9.01698 0.8492,3.88276 2.806,10.51731 2.4652,-2.88182 4.4454,-1.31225 5.8933,-10.29777 -0.071,7.05798 -1.0475,8.0225 -0.1647,13.17236 l 0,4.06148 -71.0706,0 0,-4.06148 z"
           style="fill:#d3d7cf;fill-opacity:1;fill-rule:evenodd;stroke:none"
           inkscape:connector-curvature="0" />
        <path
           style="fill:#d3d7cf;fill-opacity:1;fill-rule:evenodd;stroke:none"
           d="m 1008.1392,876.02112 c -0.6686,-1.82015 2.5381,6.41491 2.049,-12.76438 0.2148,12.00386 3.63,6.37738 1.9721,12.1766 l 5.8236,-11.57114 c -1.972,10.42851 -1.9571,12.34681 -0.5877,10.84168 1.9071,-6.11857 3.4333,-4.25859 3.2979,-10.72312 l 1.7975,10.20172 c 1.921,-3.00683 2.0513,4.65006 3.9723,-9.02169 l 2.1748,9.39902 3.0736,-9.82438 c 0.5762,6.1471 -1.991,3.15588 3.3411,9.30298 -0.1729,-5.38273 2.2537,-2.20065 2.0597,-9.65288 l 1.1595,9.64602 4.2192,-8.63064 1.6603,8.54145 c 3.2285,-5.07094 2.8482,-3.57175 3.3343,-9.55683 l 0.8919,9.52939 2.2091,-12.32851 c -1.1477,9.69349 0.7953,0.71698 2.5247,12.32851 3.7489,-4.47058 4.8402,-3.6502 5.5159,-9.14519 l 0.3773,9.13833 2.8609,-12.29421 c -1.1717,13.31873 1.1023,-1.03138 1.7495,12.28734 1.5367,-2.31622 2.312,-3.89214 3.8488,-9.13146 l 0.5008,8.23273 2.7099,-10.37324 c -0.5708,9.01698 0.8492,3.88276 2.806,10.51731 2.4652,-2.88182 4.4454,-1.31225 5.8933,-10.29777 -0.071,7.05798 -1.0475,8.0225 -0.1647,13.17236 l 0,4.06148 -71.0706,0 0,-4.06148 z"
           id="path4480-3-8-4-7-6"
           sodipodi:nodetypes="cccccccccccccccccccccccccccccccc"
           inkscape:connector-curvature="0" />
        <path
           style="fill:#d3d7cf;fill-opacity:1;fill-rule:evenodd;stroke:none"
           d="m 1147.2449,876.02112 c -0.6686,-1.82015 2.538,6.41491 2.049,-12.76438 0.2148,12.00386 3.63,6.37738 1.9721,12.1766 l 5.8236,-11.57114 c -1.972,10.42851 -1.9571,12.34681 -0.5877,10.84168 1.9071,-6.11857 3.4333,-4.25859 3.2979,-10.72312 l 1.7975,10.20172 c 1.921,-3.00683 2.0513,4.65006 3.9723,-9.02169 l 2.1748,9.39902 3.0735,-9.82438 c 0.5762,6.1471 -1.9909,3.15588 3.3412,9.30298 -0.1729,-5.38273 2.2537,-2.20065 2.0597,-9.65288 l 1.1595,9.64602 4.2192,-8.63064 1.6603,8.54145 c 3.2285,-5.07094 2.8482,-3.57175 3.3343,-9.55683 l 0.8918,9.52939 2.2092,-12.32851 c -1.1477,9.69349 0.7953,0.71698 2.5247,12.32851 3.7489,-4.47058 4.8402,-3.6502 5.5159,-9.14519 l 0.3773,9.13833 2.8609,-12.29421 c -1.1717,13.31873 1.1023,-1.03138 1.7494,12.28734 1.5368,-2.31622 2.3121,-3.89214 3.8488,-9.13146 l 0.5009,8.23273 2.7099,-10.37324 c -0.5708,9.01698 0.8492,3.88276 2.806,10.51731 2.4652,-2.88182 4.4454,-1.31225 5.8933,-10.29777 -0.071,7.05798 -1.0475,8.0225 -0.1647,13.17236 l 0,4.06148 -71.0706,0 0,-4.06148 z"
           id="path4482-7-1-7-7-4"
           sodipodi:nodetypes="cccccccccccccccccccccccccccccccc"
           inkscape:connector-curvature="0" />
        <path
           sodipodi:nodetypes="cccccccccccccccccccccccccccccc"
           id="path4484-3-7-7-8-5"
           d="m 1140.0218,868.11558 c 1.972,7.4604 1.7032,9.19592 0.3338,8.11917 -3.9378,-4.01394 -3.941,-10.67352 -2.7902,-15.11655 l -2.3052,14.01716 c -1.9209,-2.15103 -2.3051,-11.38261 -4.2261,-21.16317 l -1.921,20.88832 -3.0735,-14.29201 c -0.5762,4.39755 0.7217,8.79509 -4.6103,13.19263 -2.8786,-1.6678 -4.036,-5.38781 -3.842,-10.71902 l -1.921,10.16933 -3.4577,-20.33863 c 0.067,9.2669 -0.5811,23.41382 0.3842,21.16317 l -1.5368,2.19877 c -3.2285,-3.62767 -3.3558,-8.911 -3.8419,-13.19264 l -0.3842,10.99387 -5.7629,-21.71287 c 1.1476,6.93458 3.2661,13.40616 1.5367,21.71287 -3.7489,-3.19818 -5.8556,-6.78798 -6.5313,-10.71901 l 0.3842,10.16932 -7.6838,-29.13373 c 1.1716,9.52802 3.7207,19.05602 3.0735,28.58403 -1.5368,-1.65699 -3.0735,-5.8715 -4.6103,-9.61962 l 0.7684,8.79509 -4.9945,-17.59018 c 0.5707,6.45061 3.5712,13.1909 -1.5368,18.96441 -2.4652,-2.06162 -4.6992,-5.11544 -6.1471,-11.54356 0.071,5.04917 1.0474,11.55022 0.1646,15.23435 l 0,2.90552 74.122,0 -9.5908,-11.96702 z"
           style="fill:#d3d7cf;fill-opacity:1;fill-rule:evenodd;stroke:none"
           inkscape:connector-curvature="0" />
        <path
           style="fill:#d3d7cf;fill-opacity:1;fill-rule:evenodd;stroke:none"
           d="m 1215.6574,877.09451 c 2.0801,-6.02677 5.6327,-16.72531 5.2081,-30.83578 1.1216,9.88786 1.0456,25.01624 -0.394,29.28281 l 3.5138,-7.76603 c -1.7123,7.67241 -1.4789,9.45723 -0.2898,8.34989 3.4193,-4.12801 3.4221,-10.97684 2.4228,-15.54613 l 2.0016,14.41551 c 1.6681,-2.21217 2.0017,-11.70608 3.6697,-21.76459 l 1.6681,21.48193 2.6688,-14.69816 c 0.5003,4.52251 -0.6267,9.04502 4.0033,13.56753 2.4995,-1.7152 3.5045,-5.54091 3.336,-11.02363 l 1.6681,10.45832 3.0024,-20.91662 c -0.058,9.53026 0.5046,24.0792 -0.3336,21.76459 l 1.3344,2.26125 -0.4687,4.34532 -33.011,-0.38812 0,-2.98809 z"
           id="path4486-5-6-3-9-4"
           sodipodi:nodetypes="ccccccccccccccccccc"
           inkscape:connector-curvature="0" />
      </g>
    </g>
    <flowRoot
       xml:space="preserve"
       id="flowRoot6817"
       style="font-size:40px;font-style:normal;font-weight:normal;line-height:125%;letter-spacing:0px;word-spacing:0px;fill:#ffffff;fill-opacity:1;stroke:none;font-family:Sans"
       transform="matrix(1.2736073,-0.01404602,0.01404602,1.2736073,-13.428558,360.65487)"
       inkscape:export-filename="/home/andreasn/Gnome/mockup-gnome-groupon.png"
       inkscape:export-xdpi="90"
       inkscape:export-ydpi="90"><flowRegion
         id="flowRegion6819"><rect
           id="rect6821"
           width="694.61847"
           height="161.72289"
           x="145.664"
           y="39.748989"
           style="fill:#ffffff" /></flowRegion><flowPara
         id="flowPara6823"
         style="font-size:40px;font-style:normal;font-variant:normal;font-weight:bold;font-stretch:normal;text-align:start;line-height:125%;writing-mode:lr-tb;text-anchor:start;fill:#ffffff;font-family:Cantarell;-inkscape-font-specification:Cantarell Bold">Help GNOME Foundation defend the GNOME trademark against Groupon!</flowPara></flowRoot>    <rect
       style="color:#000000;fill:#4e9a06;fill-opacity:1;fill-rule:nonzero;stroke:#4e9a06;stroke-width:1;marker:none;visibility:visible;display:inline;overflow:visible;enable-background:accumulate"
       id="rect6937"
       width="437.3381"
       height="68.982208"
       x="399.33096"
       y="1163.8644"
       rx="7.9999995"
       ry="7.9999995"
       inkscape:export-filename="/home/andreasn/Gnome/mockup-gnome-groupon.png"
       inkscape:export-xdpi="90"
       inkscape:export-ydpi="90" />
    <text
       xml:space="preserve"
       style="font-size:19.80961227px;font-style:normal;font-weight:normal;line-height:125%;letter-spacing:0px;word-spacing:0px;fill:#ffffff;fill-opacity:1;stroke:none;font-family:Sans"
       x="486.19476"
       y="1204.9617"
       id="text7011"
       sodipodi:linespacing="125%"
       inkscape:export-filename="/home/andreasn/Gnome/mockup-gnome-groupon.png"
       inkscape:export-xdpi="90"
       inkscape:export-ydpi="90"><tspan
         sodipodi:role="line"
         id="tspan7013"
         x="486.19476"
         y="1204.9617">Help us by donating today</tspan></text>
    <flowRoot
       transform="matrix(1.1701258,0,0,1.1701258,-109.63108,561.90004)"
       style="font-size:16px;font-style:normal;font-variant:normal;font-weight:normal;font-stretch:normal;line-height:125%;letter-spacing:0px;word-spacing:0px;fill:#555753;fill-opacity:1;stroke:none;font-family:Cantarell;-inkscape-font-specification:Cantarell"
       id="flowRoot5263-4"
       xml:space="preserve"
       inkscape:export-filename="/home/andreasn/Gnome/mockup-gnome-groupon.png"
       inkscape:export-xdpi="90"
       inkscape:export-ydpi="90"><flowRegion
         id="flowRegion5265-8"><rect
           style="font-size:16px;fill:#555753"
           y="603.21863"
           x="433.25095"
           height="77.336548"
           width="446.60513"
           id="rect5267-7" /></flowRegion><flowPara
         id="flowPara6893-4">Spread the word on: <flowSpan
   style="fill:#3465a4"
   id="flowSpan10423">Facebook<flowSpan
   style="fill:#000000"
   id="flowSpan6154">,</flowSpan> Twitter <flowSpan
   style="fill:#000000"
   id="flowSpan6152">and</flowSpan> Google+</flowSpan></flowPara></flowRoot>    <g
       id="g4309"
       transform="matrix(3.4533237,0,0,3.4533237,92.963765,1023.8704)"
       style="fill:#d3d7cf;fill-opacity:1" />
    <path
       style="fill:#f57900;fill-opacity:1;stroke:none"
       d="m 0,629.0001 1270,-40 0,-26 -1268,0 z"
       id="path11745"
       inkscape:connector-curvature="0"
       sodipodi:nodetypes="ccccc"
       inkscape:export-filename="/home/andreasn/Gnome/mockup-gnome-groupon.png"
       inkscape:export-xdpi="90"
       inkscape:export-ydpi="90" />
    <g
       transform="matrix(1.2190266,0,0,1.2190266,-157.09186,876.8152)"
       style="fill:#d3d7cf;fill-opacity:1"
       id="g4562"
       inkscape:export-filename="/home/andreasn/Gnome/mockup-gnome-groupon.png"
       inkscape:export-xdpi="90"
       inkscape:export-ydpi="90">
      <g
         id="g4542"
         transform="matrix(0.44698897,0,0,0.44698897,-132.67881,282.63469)"
         style="fill:#d3d7cf;fill-opacity:1">
        <path
           inkscape:connector-curvature="0"
           sodipodi:nodetypes="cccc"
           id="path4544"
           d="m 1120.3978,394.65802 c 47.5668,0.0631 30.9742,16.82833 78.2223,16.65844 -23.2359,21.73396 -51.1628,0.67115 -77.6142,16.60479 l -0.6081,-33.26323 z"
           style="fill:#d3d7cf;fill-opacity:1;stroke-width:1px" />
        <rect
           ry="1.2234854"
           rx="1.2234854"
           y="394.63882"
           x="1119.777"
           height="116.44444"
           width="1.3333334"
           id="rect4546"
           style="fill:#d3d7cf;fill-opacity:1;fill-rule:nonzero;stroke:none" />
      </g>
      <g
         id="g4548"
         transform="matrix(0.67366412,0,0,0.67366412,-472.71192,166.78481)"
         style="fill:#d3d7cf;fill-opacity:1">
        <path
           inkscape:connector-curvature="0"
           style="fill:#d3d7cf;fill-opacity:1;stroke-width:1px"
           d="m 1119.8644,394.65802 c 26.4674,14.21481 34.552,0.89601 68.2529,15.48557 -27.0477,5.0205 -40.607,18.8507 -67.6448,17.77766 l -0.6081,-33.26323 z"
           id="path4550"
           sodipodi:nodetypes="cccc" />
        <rect
           style="fill:#d3d7cf;fill-opacity:1;fill-rule:nonzero;stroke:none"
           id="rect4552"
           width="1.3333334"
           height="116.44444"
           x="1119.1392"
           y="394.63882"
           rx="0.81180584"
           ry="0.81180584" />
      </g>
      <g
         id="g4554"
         transform="matrix(0.99734051,0,0,0.99734051,-796.62041,1.3592184)"
         style="fill:#d3d7cf;fill-opacity:1">
        <path
           inkscape:connector-curvature="0"
           sodipodi:nodetypes="cccc"
           id="path4556"
           d="m 1147.6732,400.35613 c -1.0066,8.00751 -5.8125,16.42067 -0.097,21.93458 10.354,-0.17752 25.9845,-5.15214 30.9219,-7.73011 -9.6335,-1.85477 -25.014,-11.05683 -30.8253,-14.20447 z"
           style="fill:#d3d7cf;fill-opacity:1;stroke-width:1px" />
        <path
           inkscape:connector-curvature="0"
           style="fill:#d3d7cf;fill-opacity:1;stroke-width:1px"
           d="m 1119.8644,394.65802 c 23.8263,-0.85476 32.987,3.67849 32.987,3.67849 l -0.9909,17.89531 c -10.354,-0.17752 -14.7988,0.90676 -31.388,4.85375 l -0.6081,-26.42755 z"
           id="path4558"
           sodipodi:nodetypes="ccccc" />
        <rect
           style="fill:#d3d7cf;fill-opacity:1;fill-rule:nonzero;stroke:none"
           id="rect4560"
           width="1.3333334"
           height="116.44444"
           x="1119.1392"
           y="394.63882"
           rx="0.54834276"
           ry="0.54834276" />
      </g>
    </g>
    <g
       id="g10321"
       transform="translate(-197.31427,987.787)"
       inkscape:export-filename="/home/andreasn/Gnome/mockup-gnome-groupon.png"
       inkscape:export-xdpi="90"
       inkscape:export-ydpi="90">
      <path
         style="fill:#d3d7cf;fill-opacity:1"
         d="m 1210.2941,450.2367 c 0.072,0.087 1.211,2.2187 2.5312,4.7188 7.6242,14.4374 11.4341,19.4602 16.0938,21.1875 3.3659,1.2478 7.7574,2.1273 10.75,2.1562 l 2.4687,0.031 -1.3125,1.125 c -4.3877,3.7478 -15.7921,8.3326 -22.4687,9.0313 l -2.3438,0.25 0.2188,1.75 c 0.367,3.2558 -1.5167,5.3327 -6,6.6562 -0.4869,0.1437 -0.887,0.2768 -1.25,0.4063 l -1.9688,0 c 0.4271,-0.28 1.5101,-0.7238 2.7813,-1.125 3.7471,-1.1826 5.2581,-2.4487 5.5625,-4.7188 0.3318,-2.4741 -0.2654,-3.2701 -2.9688,-3.875 -5.9406,-1.3295 -13.2297,-6.6285 -15.7812,-11.4687 -2.0879,-3.9609 -2.3945,-6.6309 -1.2813,-11.25 0.073,-0.3038 -1.5564,-1.4861 -3.7812,-2.75 -3.5964,-2.0432 -3.7995,-2.2444 -2.875,-2.5938 0.5506,-0.208 4.2203,-1.5304 8.1562,-2.9375 5.3988,-1.9302 7.9217,-3.0765 10.25,-4.6562 1.6973,-1.1516 3.1465,-2.0243 3.2188,-1.9375 z"
         id="path3000"
         inkscape:connector-curvature="0"
         sodipodi:nodetypes="ccccccccccccccccccccscc" />
    </g>
  </g>
  <g
     inkscape:groupmode="layer"
     id="layer1"
     inkscape:label="Layer"
     style="display:none">
    <image
       y="363.14719"
       x="-1678.1542"
       id="image3149"
       xlink:href="file:///home/andreasn/Gnome/mockup-happybirthdaygnome3.png"
       height="1848"
       width="1267" />
  </g>
</svg>
